%YAML 1.1
%TAG !u! tag:unity3d.com,2011:
--- !u!74 &7400000
AnimationClip:
  m_ObjectHideFlags: 0
  m_CorrespondingSourceObject: {fileID: 0}
  m_PrefabInstance: {fileID: 0}
  m_PrefabAsset: {fileID: 0}
  m_Name: dying
  serializedVersion: 6
  m_Legacy: 0
  m_Compressed: 0
  m_UseHighQualityCurve: 1
  m_RotationCurves: []
  m_CompressedRotationCurves: []
  m_EulerCurves: []
  m_PositionCurves: []
  m_ScaleCurves: []
  m_FloatCurves: []
  m_PPtrCurves:
  - curve:
    - time: 0
      value: {fileID: 21300000, guid: aed608f6c16956e47a14da9f56aebb80, type: 3}
    - time: 0.055555556
      value: {fileID: 21300000, guid: fd6c46aaddb1242468081df03a0438ef, type: 3}
    - time: 0.11111111
      value: {fileID: 21300000, guid: b982ea2d3711f2f49b9e35f6ce841217, type: 3}
    - time: 0.16666667
      value: {fileID: 21300000, guid: b7f33fb63dc0c30449b8b1d6444682ce, type: 3}
    - time: 0.22222222
      value: {fileID: 21300000, guid: b67c5a933a69ffb42be95920a9101bca, type: 3}
    - time: 0.2777778
      value: {fileID: 21300000, guid: 76cc1255deb8784439349a705f2f6176, type: 3}
    - time: 0.33333334
      value: {fileID: 21300000, guid: e185c09130c5ff04bbe7347715edf83a, type: 3}
    - time: 0.3888889
      value: {fileID: 21300000, guid: a86d15885fdb4ee42b86404c1c105851, type: 3}
    - time: 0.44444445
      value: {fileID: 21300000, guid: cfb5deb34f34aad42a58b2c6bf7346c8, type: 3}
    - time: 0.5
      value: {fileID: 21300000, guid: fb9df5991f9bfd14a8c0f2cf5f7be1c8, type: 3}
    - time: 0.5555556
      value: {fileID: 21300000, guid: b73a5dfb1452b954a869e2204ad3dc97, type: 3}
    - time: 0.6111111
      value: {fileID: 21300000, guid: affdc7013fa913f47904dfaf04ab1ddf, type: 3}
    - time: 0.6666667
      value: {fileID: 21300000, guid: 296314faa57cbac4da33dd773793efed, type: 3}
    - time: 0.7222222
      value: {fileID: 21300000, guid: e889110d2b8efce45a198f30c95de276, type: 3}
    - time: 0.7777778
      value: {fileID: 21300000, guid: cfbf164d7967dbd44ba46af27a506dbe, type: 3}
    attribute: m_Sprite
    path: Body
    classID: 212
    script: {fileID: 0}
  m_SampleRate: 18
  m_WrapMode: 0
  m_Bounds:
    m_Center: {x: 0, y: 0, z: 0}
    m_Extent: {x: 0, y: 0, z: 0}
  m_ClipBindingConstant:
    genericBindings:
    - serializedVersion: 2
      path: 2073732236
      attribute: 0
      script: {fileID: 0}
      typeID: 212
      customType: 23
      isPPtrCurve: 1
    pptrCurveMapping:
    - {fileID: 21300000, guid: aed608f6c16956e47a14da9f56aebb80, type: 3}
    - {fileID: 21300000, guid: fd6c46aaddb1242468081df03a0438ef, type: 3}
    - {fileID: 21300000, guid: b982ea2d3711f2f49b9e35f6ce841217, type: 3}
    - {fileID: 21300000, guid: b7f33fb63dc0c30449b8b1d6444682ce, type: 3}
    - {fileID: 21300000, guid: b67c5a933a69ffb42be95920a9101bca, type: 3}
    - {fileID: 21300000, guid: 76cc1255deb8784439349a705f2f6176, type: 3}
    - {fileID: 21300000, guid: e185c09130c5ff04bbe7347715edf83a, type: 3}
    - {fileID: 21300000, guid: a86d15885fdb4ee42b86404c1c105851, type: 3}
    - {fileID: 21300000, guid: cfb5deb34f34aad42a58b2c6bf7346c8, type: 3}
    - {fileID: 21300000, guid: fb9df5991f9bfd14a8c0f2cf5f7be1c8, type: 3}
    - {fileID: 21300000, guid: b73a5dfb1452b954a869e2204ad3dc97, type: 3}
    - {fileID: 21300000, guid: affdc7013fa913f47904dfaf04ab1ddf, type: 3}
    - {fileID: 21300000, guid: 296314faa57cbac4da33dd773793efed, type: 3}
    - {fileID: 21300000, guid: e889110d2b8efce45a198f30c95de276, type: 3}
    - {fileID: 21300000, guid: cfbf164d7967dbd44ba46af27a506dbe, type: 3}
  m_AnimationClipSettings:
    serializedVersion: 2
    m_AdditiveReferencePoseClip: {fileID: 0}
    m_AdditiveReferencePoseTime: 0
    m_StartTime: 0
    m_StopTime: 0.8333334
    m_OrientationOffsetY: 0
    m_Level: 0
    m_CycleOffset: 0
    m_HasAdditiveReferencePose: 0
    m_LoopTime: 1
    m_LoopBlend: 0
    m_LoopBlendOrientation: 0
    m_LoopBlendPositionY: 0
    m_LoopBlendPositionXZ: 0
    m_KeepOriginalOrientation: 0
    m_KeepOriginalPositionY: 1
    m_KeepOriginalPositionXZ: 0
    m_HeightFromFeet: 0
    m_Mirror: 0
  m_EditorCurves: []
  m_EulerEditorCurves: []
  m_HasGenericRootTransform: 0
  m_HasMotionFloatCurves: 0
  m_Events:
  - time: 0.7777778
    functionName: Destroy
    data: 
    objectReferenceParameter: {fileID: 0}
    floatParameter: 0
    intParameter: 0
    messageOptions: 0
