%YAML 1.1
%TAG !u! tag:unity3d.com,2011:
--- !u!74 &7400000
AnimationClip:
  m_ObjectHideFlags: 0
  m_CorrespondingSourceObject: {fileID: 0}
  m_PrefabInstance: {fileID: 0}
  m_PrefabAsset: {fileID: 0}
  m_Name: Dying
  serializedVersion: 6
  m_Legacy: 0
  m_Compressed: 0
  m_UseHighQualityCurve: 1
  m_RotationCurves: []
  m_CompressedRotationCurves: []
  m_EulerCurves: []
  m_PositionCurves: []
  m_ScaleCurves: []
  m_FloatCurves: []
  m_PPtrCurves:
  - curve:
    - time: 0
      value: {fileID: 21300000, guid: c2d3c1f45b1dfbd4dbe779c335a05e25, type: 3}
    - time: 0.055555556
      value: {fileID: 21300000, guid: 69cb783a267bd8b45800f71c458f9359, type: 3}
    - time: 0.11111111
      value: {fileID: 21300000, guid: dc70b51b17018e043b80c6daf31345d5, type: 3}
    - time: 0.16666667
      value: {fileID: 21300000, guid: a6d23726f8c7ceb45a1ca2e894a3bc05, type: 3}
    - time: 0.22222222
      value: {fileID: 21300000, guid: 7fdc06a56a2f76043932346f9dbd7c1d, type: 3}
    - time: 0.2777778
      value: {fileID: 21300000, guid: 43518dd22cc0857459dd4989724b7cef, type: 3}
    - time: 0.33333334
      value: {fileID: 21300000, guid: 9b708dd6772b38c49bdf1a1df2d4f9da, type: 3}
    - time: 0.3888889
      value: {fileID: 21300000, guid: 0709ba2a160e7d149b34b4066d4d6693, type: 3}
    - time: 0.44444445
      value: {fileID: 21300000, guid: c56c1b808ed8501408b790e918117959, type: 3}
    - time: 0.5
      value: {fileID: 21300000, guid: 850a12f73844b26499890b7035200df0, type: 3}
    - time: 0.5555556
      value: {fileID: 21300000, guid: 8de4a6baabce2fb48a19bcfb574d659a, type: 3}
    - time: 0.6111111
      value: {fileID: 21300000, guid: d0914a39d9731b84bac8e31ea49d2bd1, type: 3}
    - time: 0.6666667
      value: {fileID: 21300000, guid: 7ecd343efa6ef0643ada2987ca7c810b, type: 3}
    - time: 0.7222222
      value: {fileID: 21300000, guid: f1e0fd8ad020b2b4aa2727a4057efde7, type: 3}
    - time: 0.7777778
      value: {fileID: 21300000, guid: 79a4769d409779443a158123b02dd31c, type: 3}
    attribute: m_Sprite
    path: Body
    classID: 212
    script: {fileID: 0}
  m_SampleRate: 18
  m_WrapMode: 0
  m_Bounds:
    m_Center: {x: 0, y: 0, z: 0}
    m_Extent: {x: 0, y: 0, z: 0}
  m_ClipBindingConstant:
    genericBindings:
    - serializedVersion: 2
      path: 2073732236
      attribute: 0
      script: {fileID: 0}
      typeID: 212
      customType: 23
      isPPtrCurve: 1
    pptrCurveMapping:
    - {fileID: 21300000, guid: c2d3c1f45b1dfbd4dbe779c335a05e25, type: 3}
    - {fileID: 21300000, guid: 69cb783a267bd8b45800f71c458f9359, type: 3}
    - {fileID: 21300000, guid: dc70b51b17018e043b80c6daf31345d5, type: 3}
    - {fileID: 21300000, guid: a6d23726f8c7ceb45a1ca2e894a3bc05, type: 3}
    - {fileID: 21300000, guid: 7fdc06a56a2f76043932346f9dbd7c1d, type: 3}
    - {fileID: 21300000, guid: 43518dd22cc0857459dd4989724b7cef, type: 3}
    - {fileID: 21300000, guid: 9b708dd6772b38c49bdf1a1df2d4f9da, type: 3}
    - {fileID: 21300000, guid: 0709ba2a160e7d149b34b4066d4d6693, type: 3}
    - {fileID: 21300000, guid: c56c1b808ed8501408b790e918117959, type: 3}
    - {fileID: 21300000, guid: 850a12f73844b26499890b7035200df0, type: 3}
    - {fileID: 21300000, guid: 8de4a6baabce2fb48a19bcfb574d659a, type: 3}
    - {fileID: 21300000, guid: d0914a39d9731b84bac8e31ea49d2bd1, type: 3}
    - {fileID: 21300000, guid: 7ecd343efa6ef0643ada2987ca7c810b, type: 3}
    - {fileID: 21300000, guid: f1e0fd8ad020b2b4aa2727a4057efde7, type: 3}
    - {fileID: 21300000, guid: 79a4769d409779443a158123b02dd31c, type: 3}
  m_AnimationClipSettings:
    serializedVersion: 2
    m_AdditiveReferencePoseClip: {fileID: 0}
    m_AdditiveReferencePoseTime: 0
    m_StartTime: 0
    m_StopTime: 0.8333334
    m_OrientationOffsetY: 0
    m_Level: 0
    m_CycleOffset: 0
    m_HasAdditiveReferencePose: 0
    m_LoopTime: 0
    m_LoopBlend: 0
    m_LoopBlendOrientation: 0
    m_LoopBlendPositionY: 0
    m_LoopBlendPositionXZ: 0
    m_KeepOriginalOrientation: 0
    m_KeepOriginalPositionY: 1
    m_KeepOriginalPositionXZ: 0
    m_HeightFromFeet: 0
    m_Mirror: 0
  m_EditorCurves: []
  m_EulerEditorCurves: []
  m_HasGenericRootTransform: 0
  m_HasMotionFloatCurves: 0
  m_Events:
  - time: 0.7777778
    functionName: Destroy
    data: 
    objectReferenceParameter: {fileID: 0}
    floatParameter: 0
    intParameter: 0
    messageOptions: 0
