%YAML 1.1
%TAG !u! tag:unity3d.com,2011:
--- !u!74 &7400000
AnimationClip:
  m_ObjectHideFlags: 0
  m_CorrespondingSourceObject: {fileID: 0}
  m_PrefabInstance: {fileID: 0}
  m_PrefabAsset: {fileID: 0}
  m_Name: Walking
  serializedVersion: 6
  m_Legacy: 0
  m_Compressed: 0
  m_UseHighQualityCurve: 1
  m_RotationCurves: []
  m_CompressedRotationCurves: []
  m_EulerCurves: []
  m_PositionCurves: []
  m_ScaleCurves: []
  m_FloatCurves: []
  m_PPtrCurves:
  - curve:
    - time: 0
      value: {fileID: 21300000, guid: 8fe69d221e506954cb1700d825a481e3, type: 3}
    - time: 0.055555556
      value: {fileID: 21300000, guid: 5e6cb1c2ec5a54944a6f0c52da690de1, type: 3}
    - time: 0.11111111
      value: {fileID: 21300000, guid: 536b3fdc5f4521e4f92a18210beeefc5, type: 3}
    - time: 0.16666667
      value: {fileID: 21300000, guid: e2b39d9ecc7d5e2419d261401d7543b4, type: 3}
    - time: 0.22222222
      value: {fileID: 21300000, guid: b355bf0565c81ee499f533e5e5f39a84, type: 3}
    - time: 0.2777778
      value: {fileID: 21300000, guid: 286319f5110de9844adb7770179571c8, type: 3}
    - time: 0.33333334
      value: {fileID: 21300000, guid: d4a75744813449e4781a7875f1ce083c, type: 3}
    - time: 0.3888889
      value: {fileID: 21300000, guid: fd412398c26afcc438b2397bec47064e, type: 3}
    - time: 0.44444445
      value: {fileID: 21300000, guid: 9cca60732f6001a4ea215cbcfa0618ed, type: 3}
    - time: 0.5
      value: {fileID: 21300000, guid: a81d2c1e319d27645901066bf08b9ee4, type: 3}
    - time: 0.5555556
      value: {fileID: 21300000, guid: 64f16d0a1764f2b4bb678a9ed19c6380, type: 3}
    - time: 0.6111111
      value: {fileID: 21300000, guid: 0c4e3177998c69b46b619622c15ec708, type: 3}
    - time: 0.6666667
      value: {fileID: 21300000, guid: 06e6c19f2ca22364a8e916fb8e788321, type: 3}
    - time: 0.7222222
      value: {fileID: 21300000, guid: 7943c361fde7edc43934b6fa849420f1, type: 3}
    - time: 0.7777778
      value: {fileID: 21300000, guid: ade0be5d2a79de6429e1cbcf64485249, type: 3}
    - time: 0.8333333
      value: {fileID: 21300000, guid: c31fc394739b6364ab35ffc3a7014fe4, type: 3}
    - time: 0.8888889
      value: {fileID: 21300000, guid: 4f6b7a887f20b8a41962e31fae5ff781, type: 3}
    - time: 0.9444444
      value: {fileID: 21300000, guid: 722184dc037532d459fa89275f9f6b7a, type: 3}
    attribute: m_Sprite
    path: Body
    classID: 212
    script: {fileID: 0}
  m_SampleRate: 18
  m_WrapMode: 0
  m_Bounds:
    m_Center: {x: 0, y: 0, z: 0}
    m_Extent: {x: 0, y: 0, z: 0}
  m_ClipBindingConstant:
    genericBindings:
    - serializedVersion: 2
      path: 2073732236
      attribute: 0
      script: {fileID: 0}
      typeID: 212
      customType: 23
      isPPtrCurve: 1
    pptrCurveMapping:
    - {fileID: 21300000, guid: 8fe69d221e506954cb1700d825a481e3, type: 3}
    - {fileID: 21300000, guid: 5e6cb1c2ec5a54944a6f0c52da690de1, type: 3}
    - {fileID: 21300000, guid: 536b3fdc5f4521e4f92a18210beeefc5, type: 3}
    - {fileID: 21300000, guid: e2b39d9ecc7d5e2419d261401d7543b4, type: 3}
    - {fileID: 21300000, guid: b355bf0565c81ee499f533e5e5f39a84, type: 3}
    - {fileID: 21300000, guid: 286319f5110de9844adb7770179571c8, type: 3}
    - {fileID: 21300000, guid: d4a75744813449e4781a7875f1ce083c, type: 3}
    - {fileID: 21300000, guid: fd412398c26afcc438b2397bec47064e, type: 3}
    - {fileID: 21300000, guid: 9cca60732f6001a4ea215cbcfa0618ed, type: 3}
    - {fileID: 21300000, guid: a81d2c1e319d27645901066bf08b9ee4, type: 3}
    - {fileID: 21300000, guid: 64f16d0a1764f2b4bb678a9ed19c6380, type: 3}
    - {fileID: 21300000, guid: 0c4e3177998c69b46b619622c15ec708, type: 3}
    - {fileID: 21300000, guid: 06e6c19f2ca22364a8e916fb8e788321, type: 3}
    - {fileID: 21300000, guid: 7943c361fde7edc43934b6fa849420f1, type: 3}
    - {fileID: 21300000, guid: ade0be5d2a79de6429e1cbcf64485249, type: 3}
    - {fileID: 21300000, guid: c31fc394739b6364ab35ffc3a7014fe4, type: 3}
    - {fileID: 21300000, guid: 4f6b7a887f20b8a41962e31fae5ff781, type: 3}
    - {fileID: 21300000, guid: 722184dc037532d459fa89275f9f6b7a, type: 3}
  m_AnimationClipSettings:
    serializedVersion: 2
    m_AdditiveReferencePoseClip: {fileID: 0}
    m_AdditiveReferencePoseTime: 0
    m_StartTime: 0
    m_StopTime: 1
    m_OrientationOffsetY: 0
    m_Level: 0
    m_CycleOffset: 0
    m_HasAdditiveReferencePose: 0
    m_LoopTime: 1
    m_LoopBlend: 0
    m_LoopBlendOrientation: 0
    m_LoopBlendPositionY: 0
    m_LoopBlendPositionXZ: 0
    m_KeepOriginalOrientation: 0
    m_KeepOriginalPositionY: 1
    m_KeepOriginalPositionXZ: 0
    m_HeightFromFeet: 0
    m_Mirror: 0
  m_EditorCurves: []
  m_EulerEditorCurves: []
  m_HasGenericRootTransform: 0
  m_HasMotionFloatCurves: 0
  m_Events:
  - time: 0
    functionName: StartMoving
    data: 
    objectReferenceParameter: {fileID: 0}
    floatParameter: 0
    intParameter: 0
    messageOptions: 0
